question,answer
What level do you have to be to reach the max of a skill?,You need to reach 99 for all skills but dungeoneering.
How many skills are there in Runescape?,There are 25 skills in Runescape.
List the skills in Runescape.,"Attack, Strength, Defence, Ranged, Prayer, Magic, Runecrafting, Construction, Constitution, Agility, Herblore, Thieving, Crafting, Fletching, Slayer, Hunter, Mining, Smithing, Fishing, Cooking, Firemaking, Woodcutting, Farming, Summoning, Dungeoneering"
What is Hunter?,
What is Smithing?,
What is a Runescape quest?,